{
    "xbee_devices": [
        {
            "node_id": "C1E1",
            "mac_addr": "0013A20041B8AB74"
        },
        {
            "node_id": "CO_1",
            "mac_addr": "0013A20041B8AB2F"
        },
        {
            "node_id": "OGGY_CO1",
            "mac_addr": "0013A20041A7898D"
        },
        {
            "node_id": "MK-CO1",
            "mac_addr": "0013A20041B8AB58"
        },
        {
            "node_id": "C1EP_2",
            "mac_addr": "0013A20041B8AB20"
        },
        {
            "node_id": "OGGY_EP2",
            "mac_addr": "0013A20041B8AF44"
        },
        {
            "node_id": "MK-EP1",
            "mac_addr": "0013A20041D50281"
        },
        {
            "node_id": "OGGY_EP1",
            "mac_addr": "0013A20041A7896D"
        },
        {
            "node_id": "C1E2 _Bom",
            "mac_addr": "0013A20041B92A4A"
        }
    ]
}